[gd_scene load_steps=2 format=2]

[ext_resource path="res://scripts/SunLight.gd" type="Script" id=1]

[node name="SunLight" type="OmniLight"]
transform = Transform( 1, 0, 0, 0, 0.772046, 0.635566, 0, -0.635566, 0.772046, 0, 0, 0 )
light_energy = 5.0
omni_range = 1000.0
omni_attenuation = 1.86607
script = ExtResource( 1 )
size = 4.0
